<svg xmlns="http://www.w3.org/2000/svg" width="211.46" height="23.14" viewBox="0 0 211.46 23.14">
  <title>Rotoworld Full Logo</title>
  <g id="Layer_2" data-name="Layer 2">
    <g id="Layer_1-2" data-name="Layer 1">
    <g id="Layer_2-2" data-name="Layer 2">

      <g id="rw-full">
        <path d="M197.26,17.94h2.3c4.1,0,7.2-1.6,7.2-6.2,0-4-3.2-5.8-6.9-5.8h-2.6Zm-4.5-16.1h6.7c6.5,0,12,2.8,12,10.2,0,6.5-5.3,10-11.4,10h-7.3Z" style="fill:#fff"/>
        <path d="M161.76,11.94a10.6,10.6,0,1,1-10.6-10.6,10.61,10.61,0,0,1,10.6,10.6" style="fill:#c9234a"/>
        <path d="M46.56,10.14h2.6c1.6,0,3.7-.1,3.7-2.3,0-2-1.8-2.3-3.5-2.3h-2.9v4.6Zm-4.4-8.3H50c4.1,0,7.6,1.4,7.6,6.1a5.16,5.16,0,0,1-4.4,5.5l5.1,8.5H53l-4.2-8.1h-2.2v8.1h-4.5V1.84Z" style="fill:#c9234a"/>
        <path d="M69.06,18.44c3.8,0,6.3-2.7,6.3-6.5s-2.5-6.5-6.3-6.5-6.3,2.7-6.3,6.5a6.14,6.14,0,0,0,6.3,6.5m0-17.1c6.3,0,10.9,4.1,10.9,10.6s-4.6,10.6-10.9,10.6-10.9-4.1-10.9-10.6,4.6-10.6,10.9-10.6" style="fill:#c9234a"/>

        <polygon points="113.26 1.84 118.16 1.84 121.36 14.74 121.36 14.74 125.66 1.84 129.76 1.84 133.96 15.14 134.06 15.14 137.36 1.84 141.96 1.84 135.96 22.04 132.06 22.04 127.56 8.04 127.56 8.04 123.06 22.04 119.26 22.04 113.26 1.84" style="fill:#fff"/>
        <path d="M167.36,10.14H170c1.6,0,3.7-.1,3.7-2.3,0-2-1.8-2.3-3.5-2.3h-2.9v4.6Zm-4.5-8.3h7.8c4.1,0,7.6,1.4,7.6,6.1a5.16,5.16,0,0,1-4.4,5.5l5.1,8.5h-5.2l-4.2-8.1h-2.2v8.1h-4.5V1.84Z" style="fill:#fff"/>
        <polygon points="180.16 1.84 184.66 1.84 184.66 17.94 191.66 17.94 191.66 22.04 180.16 22.04 180.16 1.84" style="fill:#fff"/>
        <polygon points="84.86 5.74 79.36 5.74 79.36 1.84 94.86 1.84 94.86 5.74 89.36 5.74 89.36 22.04 84.86 22.04 84.86 5.74" style="fill:#c9234a"/>

        <path d="M105.26,18.44c-3.8,0-6.3-2.7-6.3-6.5s2.5-6.5,6.3-6.5,6.3,2.7,6.3,6.5-2.5,6.5-6.3,6.5m6-15.6a11.62,11.62,0,0,0-6-1.5c-6.3,0-10.9,4.1-10.9,10.6s4.6,10.6,10.9,10.6c4.7,0,8.4-2.3,10-6.1Z" style="fill:#c9234a"/>
      </g>

        <g id="nbc-peacock">
          <path d="M18.86,2.54a5.18,5.18,0,0,1,2.3-2.1,5.18,5.18,0,0,1,5.1.7,4.69,4.69,0,0,1,1.6,4.5,10.37,10.37,0,0,1,1-.4,4.91,4.91,0,0,1,5.3,1.7,4.82,4.82,0,0,1,.6,4.5,6.61,6.61,0,0,1-1.4,2l.1.1a5,5,0,0,1,4.2,3.3,4.69,4.69,0,0,1-1.2,4.9,5.36,5.36,0,0,1-3.9,1.4H5.26a5,5,0,0,1-4.9-2.9,4.77,4.77,0,0,1,1-5.2,5.34,5.34,0,0,1,3.1-1.5,5.13,5.13,0,0,1-1.6-4.7,4.76,4.76,0,0,1,2.9-3.4,4.9,4.9,0,0,1,4.1.3v-.1a4.64,4.64,0,0,1,2.2-4.9,4.68,4.68,0,0,1,5.2.1,5.17,5.17,0,0,1,1.6,1.7" style="fill:#fff"/>
          <path d="M26.56,3.24a4.27,4.27,0,0,1-.4,3.8l-4.7,10.7h0l-1.7-10.8c-.1-1,1-1.5,1.6-2,0-.2-.2-.1-.3-.2h-1.6a3.5,3.5,0,0,1,2-3.2,4,4,0,0,1,4.2.4,4.28,4.28,0,0,1,.9,1.3" style="fill:#645faa"/>
          <path d="M17.86,2.84a3.87,3.87,0,0,1,.5,2.4l-1.9,12.4h0l-.5-1-4.8-10.8a3.61,3.61,0,0,1,1-3.8,3.91,3.91,0,0,1,4-.8,5.17,5.17,0,0,1,1.7,1.6" style="fill:#c9234a"/>
          <path d="M33.56,8a3.7,3.7,0,0,1-.2,3.8,9,9,0,0,1-1.8,1.6l-10,6.9h0l.1-.3L27,8a3.77,3.77,0,0,1,6.6,0" style="fill:#0089cf"/><path d="M10.76,8l5.5,12.3h-.1l-11.1-7.7a3.7,3.7,0,0,1-1.2-3.8,3.82,3.82,0,0,1,2.3-2.5A3.64,3.64,0,0,1,10.76,8" style="fill:#f36f21"/>
          <path d="M36.46,16.74a4,4,0,0,1-.5,3.8,3.42,3.42,0,0,1-3.1,1.4H21L31,15a3.94,3.94,0,0,1,3.5-.2,3.72,3.72,0,0,1,2,1.9" style="fill:#0db14b"/>
          <path d="M1.26,16.74a3.73,3.73,0,0,0,.5,3.8,3.42,3.42,0,0,0,3.1,1.4h11.9L6.76,15a3.92,3.92,0,0,0-3.5-.2,4.09,4.09,0,0,0-2,1.9" style="fill:#fdb913"/>
        </g>
      </g>
    </g>
  </g>
</svg>
